first_name,last_name,email,credit_card,date,url
Gerald,Fields,gfields0@clickbank.net,5002350727203065,1/4/2016,http://apache.org/luctus/et/ultrices/posuere/cubilia.aspx?sit=quam&amet=pede&lobortis=lobortis&sapien=ligula&sapien=sit&non=amet&mi=eleifend&integer=pede&ac=libero&neque=quis&duis=orci&bibendum=nullam&morbi=molestie&non=nibh&quam=in&nec=lectus&dui=pellentesque&luctus=at&rutrum=nulla&nulla=suspendisse&tellus=potenti&in=cras&sagittis=in&dui=purus&vel=eu&nisl=magna&duis=vulputate&ac=luctus&nibh=cum&fusce=sociis&lacus=natoque&purus=penatibus&aliquet=et&at=magnis&feugiat=dis&non=parturient&pretium=montes&quis=nascetur&lectus=ridiculus&suspendisse=mus&potenti=vivamus&in=vestibulum
Robert,Welch,rwelch1@state.gov,4207792164102,3/9/2016,https://elpais.com/lectus/pellentesque.jsp?malesuada=turpis&in=sed&imperdiet=ante&et=vivamus&commodo=tortor&vulputate=duis&justo=mattis&in=egestas&blandit=metus&ultrices=aenean&enim=fermentum&lorem=donec&ipsum=ut&dolor=mauris&sit=eget
Roy,Washington,rwashington2@alibaba.com,4944128037970,8/18/2015,https://gmpg.org/orci/mauris/lacinia/sapien.png?posuere=in&cubilia=blandit&curae=ultrices&nulla=enim&dapibus=lorem&dolor=ipsum&vel=dolor
Ann,Foster,afoster3@oaic.gov.au,676225829912991930,8/5/2015,http://amazonaws.com/ipsum/aliquam/non/mauris/morbi/non.js?ipsum=duis&primis=aliquam&in=convallis&faucibus=nunc&orci=proin&luctus=at&et=turpis&ultrices=a&posuere=pede&cubilia=posuere&curae=nonummy&mauris=integer&viverra=non&diam=velit&vitae=donec&quam=diam&suspendisse=neque
Catherine,Stevens,cstevens4@tinyurl.com,5425305851854850,9/8/2015,https://ning.com/aliquet/maecenas/leo/odio/condimentum/id/luctus.json?quis=odio&libero=in&nullam=hac&sit=habitasse&amet=platea&turpis=dictumst&elementum=maecenas&ligula=ut&vehicula=massa&consequat=quis&morbi=augue&a=luctus&ipsum=tincidunt&integer=nulla&a=mollis&nibh=molestie&in=lorem&quis=quisque&justo=ut&maecenas=erat&rhoncus=curabitur&aliquam=gravida&lacus=nisi&morbi=at&quis=nibh&tortor=in&id=hac&nulla=habitasse&ultrices=platea&aliquet=dictumst&maecenas=aliquam&leo=augue&odio=quam&condimentum=sollicitudin&id=vitae
Cheryl,Moore,cmoore5@admin.ch,4905169203434908,12/1/2015,https://mysql.com/aliquet/maecenas.jpg?amet=est&diam=quam&in=pharetra&magna=magna&bibendum=ac&imperdiet=consequat&nullam=metus&orci=sapien&pede=ut&venenatis=nunc&non=vestibulum&sodales=ante&sed=ipsum&tincidunt=primis&eu=in&felis=faucibus&fusce=orci&posuere=luctus&felis=et&sed=ultrices&lacus=posuere&morbi=cubilia&sem=curae&mauris=mauris&laoreet=viverra&ut=diam&rhoncus=vitae
Marie,Hansen,mhansen6@soundcloud.com,5492015218669424,5/13/2015,http://alexa.com/turpis/nec/euismod/scelerisque/quam/turpis/adipiscing.jsp?non=at&interdum=nulla&in=suspendisse&ante=potenti&vestibulum=cras&ante=in&ipsum=purus&primis=eu&in=magna&faucibus=vulputate&orci=luctus&luctus=cum&et=sociis&ultrices=natoque&posuere=penatibus&cubilia=et&curae=magnis&duis=dis&faucibus=parturient&accumsan=montes&odio=nascetur&curabitur=ridiculus&convallis=mus&duis=vivamus&consequat=vestibulum&dui=sagittis&nec=sapien&nisi=cum&volutpat=sociis&eleifend=natoque&donec=penatibus&ut=et&dolor=magnis&morbi=dis&vel=parturient&lectus=montes&in=nascetur&quam=ridiculus&fringilla=mus&rhoncus=etiam&mauris=vel&enim=augue&leo=vestibulum&rhoncus=rutrum&sed=rutrum&vestibulum=neque&sit=aenean&amet=auctor&cursus=gravida&id=sem&turpis=praesent&integer=id&aliquet=massa&massa=id&id=nisl&lobortis=venenatis&convallis=lacinia&tortor=aenean&risus=sit&dapibus=amet&augue=justo&vel=morbi
Betty,Stephens,bstephens7@huffingtonpost.com,5108757023905388,3/22/2016,http://hhs.gov/cras/mi/pede/malesuada.jsp?turpis=bibendum&adipiscing=morbi&lorem=non&vitae=quam&mattis=nec&nibh=dui&ligula=luctus&nec=rutrum&sem=nulla&duis=tellus&aliquam=in&convallis=sagittis&nunc=dui&proin=vel&at=nisl&turpis=duis&a=ac&pede=nibh&posuere=fusce&nonummy=lacus&integer=purus&non=aliquet&velit=at&donec=feugiat&diam=non&neque=pretium&vestibulum=quis&eget=lectus&vulputate=suspendisse&ut=potenti&ultrices=in&vel=eleifend&augue=quam&vestibulum=a&ante=odio&ipsum=in&primis=hac&in=habitasse&faucibus=platea&orci=dictumst&luctus=maecenas&et=ut&ultrices=massa&posuere=quis&cubilia=augue&curae=luctus&donec=tincidunt&pharetra=nulla&magna=mollis&vestibulum=molestie
Jesse,Perry,jperry8@istockphoto.com,3584051288099170,5/19/2015,http://psu.edu/odio/porttitor/id.jpg?ut=integer&blandit=ac&non=neque&interdum=duis&in=bibendum&ante=morbi&vestibulum=non&ante=quam&ipsum=nec&primis=dui&in=luctus&faucibus=rutrum&orci=nulla&luctus=tellus&et=in&ultrices=sagittis&posuere=dui&cubilia=vel&curae=nisl&duis=duis&faucibus=ac&accumsan=nibh&odio=fusce&curabitur=lacus&convallis=purus&duis=aliquet&consequat=at&dui=feugiat&nec=non&nisi=pretium&volutpat=quis&eleifend=lectus&donec=suspendisse&ut=potenti&dolor=in&morbi=eleifend&vel=quam&lectus=a&in=odio&quam=in&fringilla=hac&rhoncus=habitasse&mauris=platea&enim=dictumst&leo=maecenas&rhoncus=ut&sed=massa&vestibulum=quis&sit=augue&amet=luctus&cursus=tincidunt&id=nulla&turpis=mollis&integer=molestie&aliquet=lorem&massa=quisque
Shawn,Jordan,sjordan9@yandex.ru,374622628729161,7/8/2015,http://ed.gov/non/pretium/quis/lectus.jpg?vestibulum=sed&aliquet=magna&ultrices=at&erat=nunc&tortor=commodo&sollicitudin=placerat&mi=praesent&sit=blandit&amet=nam&lobortis=nulla&sapien=integer&sapien=pede&non=justo&mi=lacinia&integer=eget&ac=tincidunt&neque=eget&duis=tempus&bibendum=vel&morbi=pede&non=morbi&quam=porttitor&nec=lorem&dui=id&luctus=ligula&rutrum=suspendisse&nulla=ornare&tellus=consequat&in=lectus&sagittis=in&dui=est&vel=risus&nisl=auctor&duis=sed&ac=tristique&nibh=in&fusce=tempus&lacus=sit&purus=amet&aliquet=sem&at=fusce&feugiat=consequat&non=nulla&pretium=nisl&quis=nunc&lectus=nisl&suspendisse=duis&potenti=bibendum&in=felis&eleifend=sed&quam=interdum&a=venenatis&odio=turpis&in=enim&hac=blandit&habitasse=mi&platea=in&dictumst=porttitor&maecenas=pede&ut=justo&massa=eu&quis=massa&augue=donec&luctus=dapibus&tincidunt=duis&nulla=at&mollis=velit&molestie=eu&lorem=est&quisque=congue&ut=elementum&erat=in&curabitur=hac&gravida=habitasse&nisi=platea
Samuel,Wells,swellsa@weather.com,3575158569210961,10/4/2015,http://unesco.org/ullamcorper.js?ut=nunc&mauris=proin&eget=at&massa=turpis&tempor=a&convallis=pede&nulla=posuere&neque=nonummy&libero=integer&convallis=non&eget=velit&eleifend=donec&luctus=diam&ultricies=neque&eu=vestibulum&nibh=eget&quisque=vulputate&id=ut&justo=ultrices&sit=vel&amet=augue&sapien=vestibulum&dignissim=ante&vestibulum=ipsum&vestibulum=primis&ante=in&ipsum=faucibus&primis=orci&in=luctus&faucibus=et&orci=ultrices&luctus=posuere&et=cubilia&ultrices=curae&posuere=donec&cubilia=pharetra&curae=magna&nulla=vestibulum&dapibus=aliquet&dolor=ultrices&vel=erat&est=tortor&donec=sollicitudin&odio=mi&justo=sit&sollicitudin=amet&ut=lobortis&suscipit=sapien&a=sapien&feugiat=non&et=mi&eros=integer&vestibulum=ac&ac=neque&est=duis&lacinia=bibendum&nisi=morbi&venenatis=non&tristique=quam&fusce=nec&congue=dui&diam=luctus&id=rutrum&ornare=nulla&imperdiet=tellus&sapien=in&urna=sagittis&pretium=dui&nisl=vel&ut=nisl&volutpat=duis&sapien=ac&arcu=nibh&sed=fusce&augue=lacus&aliquam=purus
Betty,Cox,bcoxb@irs.gov,4175000062796512,10/10/2015,https://biblegateway.com/viverra.png?sapien=erat&in=vestibulum&sapien=sed&iaculis=magna&congue=at&vivamus=nunc
Dorothy,Mason,dmasonc@admin.ch,5602256479652678,10/23/2015,http://angelfire.com/semper/sapien/a/libero/nam.png?orci=aliquam&mauris=non&lacinia=mauris&sapien=morbi&quis=non&libero=lectus&nullam=aliquam&sit=sit&amet=amet&turpis=diam&elementum=in&ligula=magna&vehicula=bibendum
Harold,Hicks,hhicksd@nih.gov,5568596940162274,5/24/2015,https://acquirethisname.com/nam/nulla/integer/pede.png?in=varius&purus=ut&eu=blandit&magna=non&vulputate=interdum&luctus=in&cum=ante&sociis=vestibulum&natoque=ante&penatibus=ipsum&et=primis&magnis=in&dis=faucibus&parturient=orci&montes=luctus&nascetur=et&ridiculus=ultrices&mus=posuere&vivamus=cubilia&vestibulum=curae&sagittis=duis&sapien=faucibus&cum=accumsan&sociis=odio&natoque=curabitur&penatibus=convallis&et=duis&magnis=consequat&dis=dui&parturient=nec&montes=nisi&nascetur=volutpat&ridiculus=eleifend&mus=donec&etiam=ut&vel=dolor&augue=morbi&vestibulum=vel&rutrum=lectus&rutrum=in&neque=quam&aenean=fringilla&auctor=rhoncus&gravida=mauris&sem=enim&praesent=leo&id=rhoncus&massa=sed&id=vestibulum&nisl=sit&venenatis=amet&lacinia=cursus&aenean=id&sit=turpis&amet=integer&justo=aliquet&morbi=massa&ut=id&odio=lobortis&cras=convallis&mi=tortor&pede=risus&malesuada=dapibus&in=augue&imperdiet=vel&et=accumsan&commodo=tellus&vulputate=nisi&justo=eu&in=orci&blandit=mauris&ultrices=lacinia&enim=sapien&lorem=quis&ipsum=libero&dolor=nullam&sit=sit&amet=amet&consectetuer=turpis&adipiscing=elementum&elit=ligula&proin=vehicula&interdum=consequat&mauris=morbi&non=a&ligula=ipsum&pellentesque=integer&ultrices=a&phasellus=nibh&id=in&sapien=quis&in=justo&sapien=maecenas&iaculis=rhoncus&congue=aliquam&vivamus=lacus&metus=morbi&arcu=quis
Jane,Simmons,jsimmonse@imageshack.us,589339311201581217,10/11/2015,https://freewebs.com/turpis.aspx?cras=nec&non=sem&velit=duis&nec=aliquam&nisi=convallis&vulputate=nunc&nonummy=proin&maecenas=at&tincidunt=turpis&lacus=a&at=pede&velit=posuere&vivamus=nonummy&vel=integer&nulla=non&eget=velit&eros=donec&elementum=diam&pellentesque=neque&quisque=vestibulum&porta=eget&volutpat=vulputate&erat=ut&quisque=ultrices&erat=vel
Christine,Hall,challf@springer.com,5010120439269971,1/4/2016,http://wsj.com/eget/nunc/donec.js?cursus=in&urna=lectus&ut=pellentesque&tellus=at&nulla=nulla&ut=suspendisse&erat=potenti&id=cras&mauris=in&vulputate=purus&elementum=eu&nullam=magna&varius=vulputate&nulla=luctus&facilisi=cum&cras=sociis&non=natoque&velit=penatibus&nec=et&nisi=magnis&vulputate=dis&nonummy=parturient&maecenas=montes&tincidunt=nascetur
William,Chapman,wchapmang@woothemes.com,3532849692845853,11/24/2015,http://springer.com/feugiat/non/pretium/quis.xml?egestas=eros&metus=viverra&aenean=eget&fermentum=congue&donec=eget&ut=semper&mauris=rutrum&eget=nulla&massa=nunc&tempor=purus&convallis=phasellus&nulla=in&neque=felis&libero=donec&convallis=semper&eget=sapien&eleifend=a&luctus=libero&ultricies=nam&eu=dui&nibh=proin&quisque=leo&id=odio&justo=porttitor&sit=id&amet=consequat&sapien=in&dignissim=consequat&vestibulum=ut&vestibulum=nulla&ante=sed&ipsum=accumsan&primis=felis&in=ut&faucibus=at&orci=dolor&luctus=quis&et=odio&ultrices=consequat&posuere=varius&cubilia=integer&curae=ac&nulla=leo&dapibus=pellentesque&dolor=ultrices&vel=mattis&est=odio&donec=donec&odio=vitae&justo=nisi&sollicitudin=nam&ut=ultrices&suscipit=libero&a=non&feugiat=mattis&et=pulvinar&eros=nulla&vestibulum=pede&ac=ullamcorper&est=augue&lacinia=a&nisi=suscipit&venenatis=nulla&tristique=elit&fusce=ac&congue=nulla&diam=sed&id=vel&ornare=enim&imperdiet=sit&sapien=amet&urna=nunc
Bobby,Perry,bperryh@youku.com,337941697833290,10/6/2015,http://photobucket.com/erat/vestibulum/sed/magna/at/nunc.xml?lectus=in&aliquam=faucibus&sit=orci&amet=luctus
Fred,Nichols,fnicholsi@google.fr,5100135807925724,10/18/2015,http://t-online.de/natoque/penatibus.png?donec=rhoncus&ut=dui&mauris=vel&eget=sem&massa=sed&tempor=sagittis&convallis=nam&nulla=congue&neque=risus&libero=semper&convallis=porta&eget=volutpat&eleifend=quam&luctus=pede&ultricies=lobortis&eu=ligula&nibh=sit&quisque=amet&id=eleifend&justo=pede&sit=libero&amet=quis&sapien=orci&dignissim=nullam&vestibulum=molestie&vestibulum=nibh&ante=in&ipsum=lectus&primis=pellentesque&in=at&faucibus=nulla&orci=suspendisse&luctus=potenti&et=cras&ultrices=in&posuere=purus
Mildred,Carroll,mcarrollj@japanpost.jp,3531054223504860,3/25/2016,https://bloglines.com/quis/orci/eget/orci.json?et=ut&ultrices=blandit&posuere=non&cubilia=interdum&curae=in&donec=ante&pharetra=vestibulum&magna=ante&vestibulum=ipsum&aliquet=primis&ultrices=in&erat=faucibus&tortor=orci&sollicitudin=luctus&mi=et&sit=ultrices&amet=posuere&lobortis=cubilia&sapien=curae&sapien=duis&non=faucibus&mi=accumsan&integer=odio&ac=curabitur&neque=convallis
Joshua,Alexander,jalexanderk@nifty.com,3535690294196460,2/25/2016,http://nbcnews.com/vel/enim/sit/amet/nunc/viverra/dapibus.json?porta=convallis&volutpat=nunc&erat=proin&quisque=at&erat=turpis&eros=a&viverra=pede&eget=posuere&congue=nonummy&eget=integer&semper=non&rutrum=velit&nulla=donec&nunc=diam&purus=neque&phasellus=vestibulum&in=eget&felis=vulputate&donec=ut&semper=ultrices&sapien=vel&a=augue&libero=vestibulum&nam=ante&dui=ipsum&proin=primis&leo=in&odio=faucibus&porttitor=orci&id=luctus&consequat=et&in=ultrices&consequat=posuere&ut=cubilia&nulla=curae&sed=donec&accumsan=pharetra&felis=magna&ut=vestibulum&at=aliquet
Martin,Ferguson,mfergusonl@ask.com,6759125138181826,11/1/2015,https://creativecommons.org/at/lorem.json?magna=quam&vulputate=sapien&luctus=varius&cum=ut&sociis=blandit&natoque=non&penatibus=interdum&et=in&magnis=ante&dis=vestibulum&parturient=ante&montes=ipsum&nascetur=primis&ridiculus=in&mus=faucibus&vivamus=orci&vestibulum=luctus&sagittis=et&sapien=ultrices&cum=posuere&sociis=cubilia&natoque=curae&penatibus=duis&et=faucibus&magnis=accumsan&dis=odio&parturient=curabitur&montes=convallis&nascetur=duis&ridiculus=consequat&mus=dui&etiam=nec&vel=nisi&augue=volutpat&vestibulum=eleifend&rutrum=donec&rutrum=ut&neque=dolor&aenean=morbi&auctor=vel&gravida=lectus&sem=in&praesent=quam&id=fringilla&massa=rhoncus&id=mauris&nisl=enim&venenatis=leo&lacinia=rhoncus&aenean=sed&sit=vestibulum&amet=sit&justo=amet&morbi=cursus&ut=id&odio=turpis&cras=integer&mi=aliquet&pede=massa&malesuada=id&in=lobortis&imperdiet=convallis&et=tortor&commodo=risus&vulputate=dapibus&justo=augue&in=vel&blandit=accumsan&ultrices=tellus&enim=nisi&lorem=eu&ipsum=orci&dolor=mauris&sit=lacinia&amet=sapien&consectetuer=quis&adipiscing=libero&elit=nullam&proin=sit&interdum=amet&mauris=turpis&non=elementum&ligula=ligula&pellentesque=vehicula&ultrices=consequat&phasellus=morbi&id=a
Jennifer,Wood,jwoodm@google.pl,5294634973471097,9/23/2015,https://myspace.com/lacinia/sapien/quis/libero.html?in=vestibulum&congue=sit&etiam=amet&justo=cursus&etiam=id&pretium=turpis&iaculis=integer&justo=aliquet&in=massa&hac=id&habitasse=lobortis&platea=convallis&dictumst=tortor&etiam=risus&faucibus=dapibus&cursus=augue&urna=vel&ut=accumsan&tellus=tellus&nulla=nisi&ut=eu&erat=orci&id=mauris&mauris=lacinia&vulputate=sapien&elementum=quis&nullam=libero&varius=nullam&nulla=sit&facilisi=amet&cras=turpis&non=elementum&velit=ligula&nec=vehicula&nisi=consequat&vulputate=morbi&nonummy=a&maecenas=ipsum&tincidunt=integer&lacus=a&at=nibh&velit=in&vivamus=quis&vel=justo&nulla=maecenas&eget=rhoncus&eros=aliquam&elementum=lacus&pellentesque=morbi&quisque=quis&porta=tortor&volutpat=id&erat=nulla&quisque=ultrices&erat=aliquet&eros=maecenas&viverra=leo&eget=odio&congue=condimentum&eget=id&semper=luctus&rutrum=nec&nulla=molestie&nunc=sed&purus=justo&phasellus=pellentesque&in=viverra&felis=pede&donec=ac&semper=diam&sapien=cras&a=pellentesque&libero=volutpat&nam=dui&dui=maecenas&proin=tristique&leo=est&odio=et&porttitor=tempus&id=semper&consequat=est&in=quam&consequat=pharetra&ut=magna&nulla=ac&sed=consequat&accumsan=metus&felis=sapien&ut=ut&at=nunc&dolor=vestibulum&quis=ante&odio=ipsum&consequat=primis&varius=in&integer=faucibus&ac=orci&leo=luctus&pellentesque=et
Antonio,Jones,ajonesn@constantcontact.com,5572962735304543,11/5/2015,http://hostgator.com/amet/cursus/id.jsp?aenean=dolor&auctor=morbi&gravida=vel&sem=lectus&praesent=in&id=quam&massa=fringilla&id=rhoncus&nisl=mauris&venenatis=enim&lacinia=leo&aenean=rhoncus&sit=sed&amet=vestibulum&justo=sit&morbi=amet&ut=cursus&odio=id&cras=turpis&mi=integer&pede=aliquet&malesuada=massa&in=id&imperdiet=lobortis&et=convallis&commodo=tortor&vulputate=risus&justo=dapibus&in=augue&blandit=vel&ultrices=accumsan&enim=tellus&lorem=nisi&ipsum=eu&dolor=orci&sit=mauris&amet=lacinia&consectetuer=sapien&adipiscing=quis&elit=libero&proin=nullam&interdum=sit&mauris=amet&non=turpis&ligula=elementum&pellentesque=ligula&ultrices=vehicula&phasellus=consequat&id=morbi&sapien=a&in=ipsum&sapien=integer&iaculis=a&congue=nibh&vivamus=in&metus=quis&arcu=justo&adipiscing=maecenas&molestie=rhoncus&hendrerit=aliquam&at=lacus&vulputate=morbi&vitae=quis&nisl=tortor&aenean=id&lectus=nulla&pellentesque=ultrices&eget=aliquet&nunc=maecenas&donec=leo&quis=odio&orci=condimentum&eget=id&orci=luctus&vehicula=nec&condimentum=molestie&curabitur=sed&in=justo&libero=pellentesque&ut=viverra&massa=pede&volutpat=ac&convallis=diam
Joseph,Edwards,jedwardso@umn.edu,30509233490170,5/12/2015,http://networksolutions.com/velit/vivamus/vel.jpg?consectetuer=pede&eget=posuere&rutrum=nonummy&at=integer&lorem=non&integer=velit&tincidunt=donec&ante=diam&vel=neque&ipsum=vestibulum&praesent=eget&blandit=vulputate&lacinia=ut&erat=ultrices&vestibulum=vel&sed=augue&magna=vestibulum&at=ante&nunc=ipsum&commodo=primis&placerat=in&praesent=faucibus&blandit=orci&nam=luctus&nulla=et&integer=ultrices&pede=posuere&justo=cubilia&lacinia=curae&eget=donec&tincidunt=pharetra&eget=magna&tempus=vestibulum&vel=aliquet&pede=ultrices&morbi=erat&porttitor=tortor&lorem=sollicitudin&id=mi&ligula=sit&suspendisse=amet&ornare=lobortis&consequat=sapien&lectus=sapien&in=non&est=mi&risus=integer&auctor=ac&sed=neque&tristique=duis&in=bibendum&tempus=morbi&sit=non&amet=quam&sem=nec&fusce=dui&consequat=luctus&nulla=rutrum&nisl=nulla&nunc=tellus&nisl=in&duis=sagittis&bibendum=dui&felis=vel&sed=nisl&interdum=duis&venenatis=ac&turpis=nibh&enim=fusce&blandit=lacus&mi=purus&in=aliquet&porttitor=at&pede=feugiat&justo=non&eu=pretium&massa=quis&donec=lectus&dapibus=suspendisse&duis=potenti&at=in&velit=eleifend&eu=quam&est=a&congue=odio&elementum=in&in=hac&hac=habitasse&habitasse=platea&platea=dictumst&dictumst=maecenas
Cynthia,Woods,cwoodsp@storify.com,3570396395108547,3/8/2016,https://techcrunch.com/ac.js?magna=sit&ac=amet&consequat=nulla&metus=quisque&sapien=arcu&ut=libero&nunc=rutrum&vestibulum=ac&ante=lobortis&ipsum=vel&primis=dapibus&in=at&faucibus=diam&orci=nam&luctus=tristique&et=tortor
Karen,Arnold,karnoldq@reverbnation.com,5610894477445081,10/14/2015,https://bizjournals.com/consectetuer/adipiscing.png?mattis=tempor&odio=turpis&donec=nec&vitae=euismod&nisi=scelerisque&nam=quam&ultrices=turpis&libero=adipiscing
Arthur,Perez,aperezr@cocolog-nifty.com,30547073597381,9/3/2015,https://adobe.com/curabitur/convallis/duis/consequat/dui/nec.json?vehicula=quis&consequat=lectus&morbi=suspendisse&a=potenti&ipsum=in&integer=eleifend&a=quam&nibh=a&in=odio&quis=in&justo=hac&maecenas=habitasse&rhoncus=platea&aliquam=dictumst&lacus=maecenas&morbi=ut&quis=massa&tortor=quis&id=augue&nulla=luctus&ultrices=tincidunt&aliquet=nulla&maecenas=mollis&leo=molestie&odio=lorem&condimentum=quisque&id=ut&luctus=erat&nec=curabitur&molestie=gravida&sed=nisi&justo=at&pellentesque=nibh&viverra=in&pede=hac&ac=habitasse&diam=platea&cras=dictumst&pellentesque=aliquam&volutpat=augue&dui=quam&maecenas=sollicitudin&tristique=vitae&est=consectetuer&et=eget&tempus=rutrum&semper=at&est=lorem&quam=integer&pharetra=tincidunt&magna=ante&ac=vel&consequat=ipsum&metus=praesent&sapien=blandit&ut=lacinia&nunc=erat&vestibulum=vestibulum
Joyce,Howell,jhowells@hatena.ne.jp,503837520375178927,10/10/2015,https://istockphoto.com/sed/lacus/morbi/sem/mauris/laoreet.jpg?tortor=ante&sollicitudin=ipsum&mi=primis&sit=in&amet=faucibus&lobortis=orci&sapien=luctus&sapien=et&non=ultrices&mi=posuere&integer=cubilia&ac=curae&neque=nulla&duis=dapibus&bibendum=dolor&morbi=vel&non=est&quam=donec&nec=odio&dui=justo&luctus=sollicitudin&rutrum=ut&nulla=suscipit&tellus=a&in=feugiat&sagittis=et&dui=eros&vel=vestibulum&nisl=ac&duis=est
Jessica,Sanders,jsanderst@usgs.gov,3529787390023883,2/18/2016,https://cafepress.com/in/felis/eu/sapien/cursus/vestibulum/proin.aspx?molestie=ut&sed=mauris&justo=eget&pellentesque=massa&viverra=tempor&pede=convallis&ac=nulla&diam=neque&cras=libero&pellentesque=convallis&volutpat=eget&dui=eleifend&maecenas=luctus&tristique=ultricies&est=eu&et=nibh&tempus=quisque&semper=id&est=justo&quam=sit&pharetra=amet&magna=sapien&ac=dignissim&consequat=vestibulum&metus=vestibulum&sapien=ante&ut=ipsum&nunc=primis&vestibulum=in&ante=faucibus&ipsum=orci&primis=luctus&in=et&faucibus=ultrices&orci=posuere&luctus=cubilia&et=curae&ultrices=nulla&posuere=dapibus&cubilia=dolor&curae=vel&mauris=est&viverra=donec&diam=odio&vitae=justo&quam=sollicitudin&suspendisse=ut&potenti=suscipit&nullam=a&porttitor=feugiat&lacus=et&at=eros&turpis=vestibulum&donec=ac&posuere=est&metus=lacinia&vitae=nisi&ipsum=venenatis&aliquam=tristique&non=fusce&mauris=congue&morbi=diam&non=id&lectus=ornare&aliquam=imperdiet&sit=sapien&amet=urna&diam=pretium
Justin,Walker,jwalkeru@spotify.com,5572687109246877,4/5/2016,http://japanpost.jp/tristique/est.json?ut=in&blandit=felis&non=eu&interdum=sapien&in=cursus&ante=vestibulum&vestibulum=proin&ante=eu&ipsum=mi&primis=nulla&in=ac&faucibus=enim&orci=in&luctus=tempor&et=turpis&ultrices=nec&posuere=euismod&cubilia=scelerisque&curae=quam&duis=turpis&faucibus=adipiscing&accumsan=lorem&odio=vitae&curabitur=mattis&convallis=nibh&duis=ligula&consequat=nec&dui=sem&nec=duis&nisi=aliquam&volutpat=convallis&eleifend=nunc&donec=proin&ut=at&dolor=turpis&morbi=a&vel=pede&lectus=posuere&in=nonummy&quam=integer&fringilla=non&rhoncus=velit&mauris=donec&enim=diam&leo=neque&rhoncus=vestibulum&sed=eget&vestibulum=vulputate&sit=ut&amet=ultrices&cursus=vel&id=augue
Jennifer,Perry,jperryv@aol.com,30301128665185,6/25/2015,http://a8.net/lobortis/ligula.json?vitae=at&quam=dolor&suspendisse=quis&potenti=odio&nullam=consequat
Diana,Harris,dharrisw@dyndns.org,201609061269002,2/20/2016,http://google.com.br/pellentesque/quisque/porta/volutpat/erat/quisque/erat.xml?pellentesque=sem&viverra=praesent&pede=id&ac=massa&diam=id&cras=nisl&pellentesque=venenatis&volutpat=lacinia&dui=aenean&maecenas=sit&tristique=amet&est=justo&et=morbi&tempus=ut&semper=odio&est=cras&quam=mi&pharetra=pede&magna=malesuada&ac=in&consequat=imperdiet&metus=et&sapien=commodo&ut=vulputate&nunc=justo&vestibulum=in&ante=blandit&ipsum=ultrices&primis=enim&in=lorem&faucibus=ipsum&orci=dolor&luctus=sit&et=amet&ultrices=consectetuer&posuere=adipiscing&cubilia=elit&curae=proin&mauris=interdum&viverra=mauris&diam=non&vitae=ligula&quam=pellentesque&suspendisse=ultrices&potenti=phasellus&nullam=id&porttitor=sapien&lacus=in&at=sapien&turpis=iaculis&donec=congue&posuere=vivamus&metus=metus&vitae=arcu&ipsum=adipiscing&aliquam=molestie&non=hendrerit&mauris=at&morbi=vulputate&non=vitae&lectus=nisl&aliquam=aenean&sit=lectus&amet=pellentesque&diam=eget&in=nunc&magna=donec&bibendum=quis&imperdiet=orci&nullam=eget&orci=orci&pede=vehicula&venenatis=condimentum&non=curabitur&sodales=in&sed=libero&tincidunt=ut&eu=massa&felis=volutpat&fusce=convallis&posuere=morbi&felis=odio&sed=odio&lacus=elementum&morbi=eu&sem=interdum&mauris=eu&laoreet=tincidunt
Christina,Hicks,chicksx@va.gov,6761728178283967822,2/3/2016,http://zdnet.com/nulla/sed.xml?erat=duis&eros=at&viverra=velit&eget=eu&congue=est&eget=congue&semper=elementum&rutrum=in&nulla=hac&nunc=habitasse&purus=platea&phasellus=dictumst&in=morbi&felis=vestibulum&donec=velit&semper=id&sapien=pretium&a=iaculis&libero=diam&nam=erat&dui=fermentum&proin=justo&leo=nec&odio=condimentum&porttitor=neque&id=sapien&consequat=placerat&in=ante&consequat=nulla&ut=justo&nulla=aliquam&sed=quis&accumsan=turpis&felis=eget&ut=elit&at=sodales&dolor=scelerisque&quis=mauris&odio=sit&consequat=amet&varius=eros&integer=suspendisse&ac=accumsan&leo=tortor&pellentesque=quis&ultrices=turpis&mattis=sed&odio=ante&donec=vivamus&vitae=tortor&nisi=duis&nam=mattis&ultrices=egestas&libero=metus&non=aenean&mattis=fermentum&pulvinar=donec&nulla=ut&pede=mauris&ullamcorper=eget&augue=massa&a=tempor&suscipit=convallis&nulla=nulla&elit=neque&ac=libero&nulla=convallis&sed=eget&vel=eleifend&enim=luctus&sit=ultricies&amet=eu&nunc=nibh&viverra=quisque&dapibus=id&nulla=justo&suscipit=sit&ligula=amet&in=sapien&lacus=dignissim&curabitur=vestibulum&at=vestibulum&ipsum=ante&ac=ipsum&tellus=primis&semper=in&interdum=faucibus
Billy,Burton,bburtony@bigcartel.com,5602222373922336,2/13/2016,http://tuttocitta.it/accumsan/tortor/quis/turpis/sed/ante.xml?lacinia=dui&aenean=vel&sit=nisl&amet=duis&justo=ac&morbi=nibh&ut=fusce&odio=lacus&cras=purus&mi=aliquet&pede=at&malesuada=feugiat&in=non&imperdiet=pretium&et=quis&commodo=lectus&vulputate=suspendisse&justo=potenti&in=in&blandit=eleifend&ultrices=quam&enim=a&lorem=odio&ipsum=in&dolor=hac&sit=habitasse&amet=platea&consectetuer=dictumst&adipiscing=maecenas&elit=ut&proin=massa&interdum=quis&mauris=augue&non=luctus&ligula=tincidunt&pellentesque=nulla&ultrices=mollis&phasellus=molestie&id=lorem&sapien=quisque&in=ut&sapien=erat&iaculis=curabitur&congue=gravida&vivamus=nisi&metus=at&arcu=nibh&adipiscing=in&molestie=hac&hendrerit=habitasse&at=platea&vulputate=dictumst&vitae=aliquam&nisl=augue&aenean=quam&lectus=sollicitudin&pellentesque=vitae&eget=consectetuer&nunc=eget&donec=rutrum
Chris,Reed,creedz@oaic.gov.au,3571640253896597,8/8/2015,http://vimeo.com/mi/integer/ac/neque.jsp?consequat=nullam&morbi=molestie&a=nibh&ipsum=in&integer=lectus&a=pellentesque&nibh=at&in=nulla&quis=suspendisse&justo=potenti&maecenas=cras&rhoncus=in&aliquam=purus&lacus=eu&morbi=magna&quis=vulputate&tortor=luctus&id=cum&nulla=sociis&ultrices=natoque&aliquet=penatibus&maecenas=et&leo=magnis&odio=dis&condimentum=parturient&id=montes&luctus=nascetur&nec=ridiculus&molestie=mus&sed=vivamus&justo=vestibulum&pellentesque=sagittis&viverra=sapien&pede=cum&ac=sociis&diam=natoque&cras=penatibus&pellentesque=et&volutpat=magnis&dui=dis&maecenas=parturient&tristique=montes&est=nascetur&et=ridiculus&tempus=mus&semper=etiam&est=vel&quam=augue&pharetra=vestibulum&magna=rutrum&ac=rutrum&consequat=neque&metus=aenean&sapien=auctor&ut=gravida&nunc=sem&vestibulum=praesent&ante=id&ipsum=massa&primis=id&in=nisl&faucibus=venenatis&orci=lacinia&luctus=aenean&et=sit&ultrices=amet&posuere=justo&cubilia=morbi&curae=ut&mauris=odio&viverra=cras&diam=mi&vitae=pede&quam=malesuada&suspendisse=in&potenti=imperdiet&nullam=et&porttitor=commodo&lacus=vulputate&at=justo&turpis=in&donec=blandit&posuere=ultrices&metus=enim&vitae=lorem&ipsum=ipsum&aliquam=dolor&non=sit&mauris=amet&morbi=consectetuer&non=adipiscing&lectus=elit&aliquam=proin&sit=interdum&amet=mauris&diam=non&in=ligula&magna=pellentesque
Frank,Howell,fhowell10@samsung.com,5100148473405335,9/10/2015,https://answers.com/pulvinar/sed/nisl/nunc.jpg?interdum=in&in=faucibus&ante=orci&vestibulum=luctus&ante=et&ipsum=ultrices&primis=posuere&in=cubilia&faucibus=curae&orci=nulla&luctus=dapibus&et=dolor&ultrices=vel&posuere=est&cubilia=donec&curae=odio&duis=justo&faucibus=sollicitudin&accumsan=ut&odio=suscipit&curabitur=a&convallis=feugiat&duis=et&consequat=eros&dui=vestibulum&nec=ac&nisi=est&volutpat=lacinia&eleifend=nisi
Tina,Cooper,tcooper11@networksolutions.com,5432626413336958,11/23/2015,http://slideshare.net/at.aspx?nec=adipiscing&nisi=elit&volutpat=proin&eleifend=interdum&donec=mauris&ut=non&dolor=ligula&morbi=pellentesque&vel=ultrices&lectus=phasellus&in=id&quam=sapien&fringilla=in&rhoncus=sapien&mauris=iaculis&enim=congue&leo=vivamus&rhoncus=metus&sed=arcu&vestibulum=adipiscing&sit=molestie&amet=hendrerit&cursus=at&id=vulputate&turpis=vitae&integer=nisl&aliquet=aenean&massa=lectus&id=pellentesque&lobortis=eget&convallis=nunc&tortor=donec&risus=quis&dapibus=orci&augue=eget&vel=orci&accumsan=vehicula
Julie,Banks,jbanks12@ed.gov,3551048331552725,3/3/2016,https://independent.co.uk/nisi/at/nibh/in/hac.html?sit=quam&amet=nec&diam=dui&in=luctus&magna=rutrum&bibendum=nulla&imperdiet=tellus
Carlos,Harper,charper13@facebook.com,4508452183848516,2/22/2016,http://timesonline.co.uk/a/ipsum/integer/a.xml?sapien=mi&urna=sit&pretium=amet&nisl=lobortis&ut=sapien&volutpat=sapien&sapien=non&arcu=mi&sed=integer&augue=ac&aliquam=neque&erat=duis&volutpat=bibendum&in=morbi&congue=non&etiam=quam&justo=nec&etiam=dui&pretium=luctus&iaculis=rutrum&justo=nulla&in=tellus&hac=in&habitasse=sagittis&platea=dui&dictumst=vel&etiam=nisl&faucibus=duis&cursus=ac&urna=nibh
Peter,Dixon,pdixon14@youtube.com,30126219479257,10/13/2015,http://gravatar.com/dolor/sit/amet/consectetuer/adipiscing/elit.js?nec=ipsum&dui=primis&luctus=in&rutrum=faucibus&nulla=orci&tellus=luctus&in=et&sagittis=ultrices&dui=posuere&vel=cubilia&nisl=curae&duis=nulla&ac=dapibus&nibh=dolor&fusce=vel&lacus=est&purus=donec&aliquet=odio&at=justo&feugiat=sollicitudin&non=ut&pretium=suscipit&quis=a&lectus=feugiat&suspendisse=et&potenti=eros&in=vestibulum&eleifend=ac&quam=est&a=lacinia&odio=nisi&in=venenatis&hac=tristique&habitasse=fusce&platea=congue&dictumst=diam&maecenas=id&ut=ornare&massa=imperdiet&quis=sapien&augue=urna&luctus=pretium&tincidunt=nisl&nulla=ut&mollis=volutpat&molestie=sapien&lorem=arcu&quisque=sed&ut=augue&erat=aliquam&curabitur=erat&gravida=volutpat&nisi=in&at=congue&nibh=etiam&in=justo&hac=etiam&habitasse=pretium&platea=iaculis&dictumst=justo&aliquam=in&augue=hac&quam=habitasse&sollicitudin=platea&vitae=dictumst&consectetuer=etiam&eget=faucibus&rutrum=cursus&at=urna&lorem=ut&integer=tellus&tincidunt=nulla&ante=ut&vel=erat&ipsum=id&praesent=mauris&blandit=vulputate&lacinia=elementum&erat=nullam&vestibulum=varius&sed=nulla&magna=facilisi&at=cras
Roger,Fisher,rfisher15@un.org,3586582608868462,7/4/2015,http://canalblog.com/justo/eu/massa/donec.xml?convallis=eget&duis=massa&consequat=tempor&dui=convallis&nec=nulla&nisi=neque&volutpat=libero&eleifend=convallis&donec=eget&ut=eleifend&dolor=luctus&morbi=ultricies&vel=eu&lectus=nibh&in=quisque
Chris,Carpenter,ccarpenter16@nba.com,3564310634806108,6/7/2015,https://shinystat.com/rutrum/neque/aenean/auctor/gravida/sem/praesent.js?non=semper&sodales=est&sed=quam&tincidunt=pharetra&eu=magna&felis=ac&fusce=consequat&posuere=metus&felis=sapien&sed=ut&lacus=nunc&morbi=vestibulum&sem=ante&mauris=ipsum&laoreet=primis&ut=in&rhoncus=faucibus&aliquet=orci&pulvinar=luctus&sed=et&nisl=ultrices&nunc=posuere&rhoncus=cubilia&dui=curae&vel=mauris&sem=viverra&sed=diam&sagittis=vitae&nam=quam&congue=suspendisse&risus=potenti&semper=nullam&porta=porttitor&volutpat=lacus&quam=at&pede=turpis&lobortis=donec&ligula=posuere&sit=metus&amet=vitae&eleifend=ipsum&pede=aliquam&libero=non&quis=mauris&orci=morbi&nullam=non&molestie=lectus&nibh=aliquam
Kathleen,Brown,kbrown17@marriott.com,4917062616913624,5/29/2015,http://google.com.br/vel/est/donec.xml?sit=interdum&amet=venenatis&sapien=turpis&dignissim=enim&vestibulum=blandit&vestibulum=mi&ante=in&ipsum=porttitor&primis=pede&in=justo&faucibus=eu&orci=massa&luctus=donec&et=dapibus&ultrices=duis&posuere=at&cubilia=velit&curae=eu&nulla=est&dapibus=congue&dolor=elementum&vel=in&est=hac&donec=habitasse&odio=platea&justo=dictumst&sollicitudin=morbi&ut=vestibulum&suscipit=velit&a=id&feugiat=pretium&et=iaculis&eros=diam&vestibulum=erat&ac=fermentum&est=justo&lacinia=nec&nisi=condimentum&venenatis=neque&tristique=sapien&fusce=placerat&congue=ante&diam=nulla&id=justo
Scott,Richards,srichards18@behance.net,5020563090409055,4/19/2015,https://indiatimes.com/praesent/blandit/nam.jsp?quis=tortor&lectus=risus&suspendisse=dapibus&potenti=augue&in=vel&eleifend=accumsan&quam=tellus&a=nisi&odio=eu&in=orci&hac=mauris&habitasse=lacinia&platea=sapien&dictumst=quis&maecenas=libero&ut=nullam&massa=sit&quis=amet&augue=turpis&luctus=elementum&tincidunt=ligula&nulla=vehicula&mollis=consequat&molestie=morbi&lorem=a&quisque=ipsum&ut=integer&erat=a&curabitur=nibh&gravida=in&nisi=quis&at=justo&nibh=maecenas&in=rhoncus&hac=aliquam&habitasse=lacus&platea=morbi&dictumst=quis&aliquam=tortor&augue=id&quam=nulla&sollicitudin=ultrices&vitae=aliquet&consectetuer=maecenas&eget=leo&rutrum=odio&at=condimentum&lorem=id&integer=luctus&tincidunt=nec&ante=molestie&vel=sed&ipsum=justo&praesent=pellentesque&blandit=viverra&lacinia=pede&erat=ac&vestibulum=diam&sed=cras&magna=pellentesque&at=volutpat&nunc=dui&commodo=maecenas&placerat=tristique&praesent=est&blandit=et&nam=tempus&nulla=semper&integer=est&pede=quam&justo=pharetra&lacinia=magna&eget=ac&tincidunt=consequat&eget=metus&tempus=sapien&vel=ut&pede=nunc&morbi=vestibulum&porttitor=ante&lorem=ipsum&id=primis&ligula=in&suspendisse=faucibus&ornare=orci
Roy,Woods,rwoods19@patch.com,3564693198020475,10/22/2015,https://themeforest.net/pulvinar/sed/nisl/nunc.jpg?nulla=consectetuer&ac=adipiscing&enim=elit&in=proin
Alan,Bennett,abennett1a@economist.com,4026607256936703,4/4/2016,http://wp.com/leo/odio/condimentum.js?felis=suspendisse&fusce=potenti&posuere=nullam&felis=porttitor&sed=lacus&lacus=at&morbi=turpis&sem=donec&mauris=posuere&laoreet=metus&ut=vitae&rhoncus=ipsum&aliquet=aliquam&pulvinar=non&sed=mauris&nisl=morbi&nunc=non&rhoncus=lectus&dui=aliquam&vel=sit&sem=amet&sed=diam&sagittis=in&nam=magna&congue=bibendum&risus=imperdiet&semper=nullam&porta=orci&volutpat=pede&quam=venenatis&pede=non&lobortis=sodales&ligula=sed&sit=tincidunt
Harold,Brooks,hbrooks1b@uol.com.br,3557831327063417,5/24/2015,http://google.pl/sapien/sapien.jsp?est=congue&congue=vivamus&elementum=metus&in=arcu&hac=adipiscing&habitasse=molestie&platea=hendrerit&dictumst=at&morbi=vulputate&vestibulum=vitae&velit=nisl&id=aenean&pretium=lectus&iaculis=pellentesque&diam=eget&erat=nunc&fermentum=donec&justo=quis&nec=orci&condimentum=eget&neque=orci&sapien=vehicula&placerat=condimentum&ante=curabitur&nulla=in&justo=libero&aliquam=ut&quis=massa&turpis=volutpat&eget=convallis&elit=morbi
Janice,Hamilton,jhamilton1c@weibo.com,5602229314705845,8/31/2015,http://amazonaws.com/at.jsp?proin=rutrum&risus=rutrum&praesent=neque&lectus=aenean&vestibulum=auctor&quam=gravida&sapien=sem&varius=praesent&ut=id&blandit=massa&non=id&interdum=nisl&in=venenatis&ante=lacinia&vestibulum=aenean&ante=sit&ipsum=amet&primis=justo&in=morbi&faucibus=ut&orci=odio&luctus=cras&et=mi&ultrices=pede&posuere=malesuada&cubilia=in&curae=imperdiet&duis=et&faucibus=commodo&accumsan=vulputate&odio=justo&curabitur=in&convallis=blandit&duis=ultrices&consequat=enim&dui=lorem&nec=ipsum&nisi=dolor&volutpat=sit&eleifend=amet&donec=consectetuer&ut=adipiscing&dolor=elit&morbi=proin&vel=interdum&lectus=mauris&in=non&quam=ligula&fringilla=pellentesque&rhoncus=ultrices&mauris=phasellus&enim=id&leo=sapien&rhoncus=in&sed=sapien&vestibulum=iaculis&sit=congue&amet=vivamus&cursus=metus&id=arcu
Jesse,Brown,jbrown1d@reuters.com,374283345499917,9/17/2015,http://desdev.cn/consequat.aspx?primis=etiam&in=vel&faucibus=augue&orci=vestibulum&luctus=rutrum&et=rutrum&ultrices=neque&posuere=aenean&cubilia=auctor&curae=gravida&mauris=sem&viverra=praesent&diam=id&vitae=massa&quam=id&suspendisse=nisl&potenti=venenatis&nullam=lacinia&porttitor=aenean&lacus=sit&at=amet&turpis=justo&donec=morbi&posuere=ut&metus=odio&vitae=cras&ipsum=mi&aliquam=pede&non=malesuada&mauris=in&morbi=imperdiet&non=et&lectus=commodo&aliquam=vulputate&sit=justo&amet=in&diam=blandit&in=ultrices&magna=enim&bibendum=lorem&imperdiet=ipsum&nullam=dolor&orci=sit&pede=amet&venenatis=consectetuer&non=adipiscing&sodales=elit&sed=proin&tincidunt=interdum&eu=mauris&felis=non&fusce=ligula&posuere=pellentesque&felis=ultrices&sed=phasellus&lacus=id&morbi=sapien&sem=in&mauris=sapien&laoreet=iaculis&ut=congue&rhoncus=vivamus&aliquet=metus&pulvinar=arcu&sed=adipiscing&nisl=molestie&nunc=hendrerit&rhoncus=at&dui=vulputate&vel=vitae
